{
	"name": "home",
	"display_name": "Início",
	"title": "Provizio | Investimentos",
	"description": "Provizio Investimentos",
	"keywords": "Portal de Negócios, Oportunidades de Negócio, Negócios Imobiliários,Negociação de Imóveis, Portal para Investidores, Produtos para Investidores,Intermédio de Negócios, Vendas Imobiliárias, Compra de Imóveis, Vendas de Imóveis, Imóveis à Venda, Propostas Imobiliárias, Rede de Investimentos Imobiliários, Rede de Corretores, Acompanhamento do Mercado Imobiliário, Oferta de Imóveis, Atendimento Diferenciado, Contato Direto com Corretor, Monitoramento de Negócios, Controle de Investimentos, Lançamentos Imobiliários, Negócios Imobiliários para Investidores, Negócios para Corretores, Negócios para Empreendedores, Negócios para Construtoras.",
	"meta": [{
		"name": "banner",
		"value": "home-banner-video.jpg",
		"label": "Banner superior",
		"field_type": "dropbox_image"
	},{
		"name": "banner_video",
		"value": "Espaço<br/>para vídeo",
		"label": "Vídeo",
		"field_type": "text_area"
	},{
		"name": "banner_title",
		"value": "Grandes<br/>oportunidades<br/>a um clique",
		"label": "Título do banner",
		"field_type": "text_field"
	},{
		"name": "banner_text",
		"value": "Portal de negócios que oferece grandes oportunidades e produtos para o mercado investidor. Fazemos conexão entre construtoras e investidores com uma ampla rede de corretores independentes.",
		"label": "Texto do banner",
		"field_type": "text_area"
	},{
		"name": "banner_button_url",
		"value": "pages/sobre/",
		"label": "Url do botão",
		"field_type": "text_field"
	},{
		"name": "banner_button_text",
		"value": "Saiba mais",
		"label": "Texto do botão",
		"field_type": "text_field"
	},{
		"name": "iconed_content",
		"value": 1,
		"label": "Diferencial",
		"field_type": "repeater",
		"contents": [{
			"name": "title",
			"value": "Inovação",
			"label": "Título",
			"field_type": "text_field",
			"order": 1
		},{
			"name": "text",
			"value": "Somos diferentes e fazemos a diferença. Modernas ferramentas para auxiliar a sua vida e facilitar o acompanhamento do mercado imobiliário.",
			"label": "Texto",
			"field_type": "text_area",
			"order": 2
		},{
			"name": "icon",
			"value": "lightbulb-o",
			"label": "Ícone",
			"field_type": "text_field",
			"order": 3
		}]
	},{
		"name": "iconed_content",
		"value": 2,
		"label": "Diferencial",
		"field_type": "repeater",
		"contents": [{
			"name": "title",
			"value": "Oportunidades",
			"label": "Título",
			"field_type": "text_field",
			"order": 1
		},{
			"name": "text",
			"value": "Intermediamos os melhores negócios do mercado, do jeito que você procura a um clique.",
			"label": "Texto",
			"field_type": "text_area",
			"order": 2
		},{
			"name": "icon",
			"value": "home",
			"label": "Ícone",
			"field_type": "text_field",
			"order": 3
		}]
	},{
		"name": "iconed_content",
		"value": 3,
		"label": "Diferencial",
		"field_type": "repeater",
		"contents": [{
			"name": "title",
			"value": "Seriedade",
			"label": "Título",
			"field_type": "text_field",
			"order": 1
		},{
			"name": "text",
			"value": "Informações seguras, com a organização e o cuidado que seus negócios necessitam.",
			"label": "Texto",
			"field_type": "text_area",
			"order": 2
		},{
			"name": "icon",
			"value": "lock",
			"label": "Ícone",
			"field_type": "text_field",
			"order": 3
		}]
	},{
		"name": "iconed_content",
		"value": 4,
		"label": "Diferencial",
		"field_type": "repeater",
		"contents": [{
			"name": "title",
			"value": "Facilidade",
			"label": "Título",
			"field_type": "text_field",
			"order": 1
		},{
			"name": "text",
			"value": "Acesso rápido, fácil e de onde você estiver. Na Provizio, todos os negócios estão ao alcance da sua mão.",
			"label": "Texto",
			"field_type": "text_area",
			"order": 2
		},{
			"name": "icon",
			"value": "hand-pointer-o",
			"label": "Ícone",
			"field_type": "text_field",
			"order": 3
		}]
	},{
		"name": "banner_bottom",
		"value": "home-banner-central.jpg",
		"label": "Banner inferior",
		"field_type": "dropbox_image"
	},{
		"name": "boxes",
		"value": 1,
		"label": "Outras páginas",
		"field_type": "repeater",
		"contents": [{
			"name": "title",
			"value": "Sou investidor",
			"label": "Título",
			"field_type": "text_field",
			"order": 1
		},{
			"name": "subtitle",
			"value": "Negócios que falam por si",
			"label": "Subtítulo",
			"field_type": "text_field",
			"order": 2
		},{
			"name": "text",
			"value": "Excelentes negócios concentrados em um único local. Escolha do melhor imóvel é renda segura e rápida. O melhor rendimento para seu dinheiro.",
			"label": "Texto",
			"field_type": "text_area",
			"order": 3
		},{
			"name": "url",
			"value": "pages/sou_investidor/",
			"label": "Url",
			"field_type": "text_field",
			"order": 4
		}]
	},{
		"name": "boxes",
		"value": 2,
		"label": "Outras páginas",
		"field_type": "repeater",
		"contents": [{
			"name": "title",
			"value": "Sou consultor",
			"label": "Título",
			"field_type": "text_field",
			"order": 1
		},{
			"name": "subtitle",
			"value": "Negócios que falam por si",
			"label": "Subtítulo",
			"field_type": "text_field",
			"order": 2
		},{
			"name": "text",
			"value": "O impulso que faltava para o seu crescimento profissional. Novas oportunidades e ampliação do seu portfólio, com total controle e iberdade. Organização no gerenciamento de todos os seus clientes e negócios.",
			"label": "Texto",
			"field_type": "text_area",
			"order": 3
		},{
			"name": "url",
			"value": "pages/sou_consultor/",
			"label": "Url",
			"field_type": "text_field",
			"order": 4
		}]
	},{
		"name": "boxes",
		"value": 3,
		"label": "Outras páginas",
		"field_type": "repeater",
		"contents": [{
			"name": "title",
			"value": "Sou parceiro",
			"label": "Título",
			"field_type": "text_field",
			"order": 1
		},{
			"name": "subtitle",
			"value": "Negocie sem complicação",
			"label": "Subtítulo",
			"field_type": "text_field",
			"order": 2
		},{
			"name": "text",
			"value": "Seus empreendimentos aos olhos de potenciais investidores, sem burocracias, com confiança, comodidade e a certeza da geração de lucros.",
			"label": "Texto",
			"field_type": "text_area",
			"order": 3
		},{
			"name": "url",
			"value": "pages/sou_parceiro/",
			"label": "Url",
			"field_type": "text_field",
			"order": 4
		}]
	},{
		"name": "bottom_text",
		"value": "Aqui fazemos<br><strong>do seu jeito</strong>",
		"label": "Texto inferior",
		"field_type": "text_field"
	}]
}