{
	"name": "about",
	"display_name": "Sobre",
	"title": "Sobre - Provizio | Investimentos",
	"description": "Sobre a Provizio Investimentos",
	"keywords": "Portal de Negócios, Oportunidades de Negócio, Negócios Imobiliários,Negociação de Imóveis, Portal para Investidores, Produtos para Investidores,Intermédio de Negócios, Vendas Imobiliárias, Compra de Imóveis, Vendas de Imóveis, Imóveis à Venda, Propostas Imobiliárias, Rede de Investimentos Imobiliários, Rede de Corretores, Acompanhamento do Mercado Imobiliário, Oferta de Imóveis, Atendimento Diferenciado, Contato Direto com Corretor, Monitoramento de Negócios, Controle de Investimentos, Lançamentos Imobiliários, Negócios Imobiliários para Investidores, Negócios para Corretores, Negócios para Empreendedores, Negócios para Construtoras.",
	"meta": [{
		"name": "banner",
		"value": "bg-sobre.png",
		"label": "Banner",
		"field_type": "dropbox_image"
	},{
		"name": "banner_title",
		"value": "BEM VINDO À PROVIZIO",
		"label": "Título",
		"field_type": "text_field"
	},{
		"name": "banner_subtitle",
		"value": "Aqui você encontra grandes oportunidades!",
		"label": "Subtítulo",
		"field_type": "text_field"
	},{
		"name": "banner_text",
		"value": "A Provizio veio para mudar a forma de divulgar e negociar imóveis. Reunimos as melhores oportunidades de negócios imobiliários para investidores, corretores e parceiros em um só lugar para facilitar a compra e a venda de lançamentos do mercado imobiliário. Aqui você controla seus investimentos.",
		"label": "Texto",
		"field_type": "textarea"
	},{
		"name": "iconed_content",
		"value": 1,
		"label": "Destaques",
		"field_type": "repeater",
		"contents": [{
			"name": "image",
			"value": "grupo.png",
			"label": "Imagem",
			"field_type": "dropbox_image",
			"order": 1
		},{
			"name": "text",
			"value": "Ampla rede de corretores cadastrados.",
			"label": "Legenda",
			"field_type": "text_field",
			"order": 2
		}]
	},{
		"name": "iconed_content",
		"value": 2,
		"label": "Destaques",
		"field_type": "repeater",
		"contents": [{
			"name": "image",
			"value": "cadeado.png",
			"label": "Imagem",
			"field_type": "dropbox_image",
			"order": 1
		},{
			"name": "text",
			"value": "Amplo conhecimento e segurança do negócio.",
			"label": "Legenda",
			"field_type": "text_field",
			"order": 2
		}]
	},{
		"name": "iconed_content",
		"value": 3,
		"label": "Destaques",
		"field_type": "repeater",
		"contents": [{
			"name": "image",
			"value": "casar.png",
			"label": "Imagem",
			"field_type": "dropbox_image",
			"order": 1
		},{
			"name": "text",
			"value": "Informações completas do empreendimento em tempo real.",
			"label": "Legenda",
			"field_type": "text_field",
			"order": 2
		}]
	},{
		"name": "bottom_text",
		"value": "O controle que todos procuram agora está reunido em um único lugar.",
		"label": "Texto inferior",
		"field_type": "text_area"
	},{
		"name": "bottom_link_text",
		"value": "Cadastre-se e aproveite as oportunidades.",
		"label": "Texto do link inferior",
		"field_type": "text_field"
	}]
}
