{
	"name": "realtor",
	"display_name": "Consultor",
	"title": "Sou consultor - Provizio | Investimentos",
	"description": "Consultor Provizio Investimentos",
	"keywords": "Portal de Negócios, Oportunidades de Negócio, Negócios Imobiliários,Negociação de Imóveis, Portal para Investidores, Produtos para Investidores,Intermédio de Negócios, Vendas Imobiliárias, Compra de Imóveis, Vendas de Imóveis, Imóveis à Venda, Propostas Imobiliárias, Rede de Investimentos Imobiliários, Rede de Corretores, Acompanhamento do Mercado Imobiliário, Oferta de Imóveis, Atendimento Diferenciado, Contato Direto com Corretor, Monitoramento de Negócios, Controle de Investimentos, Lançamentos Imobiliários, Negócios Imobiliários para Investidores, Negócios para Corretores, Negócios para Empreendedores, Negócios para Construtoras.",
	"meta": [{
		"name": "banner",
		"value": "corretor-banner.jpg",
		"label": "Banner superior",
		"field_type": "dropbox_image"
	},{
		"name": "banner_title",
		"value": "Negócios exclusivos",
		"label": "Título do banner",
		"field_type": "text_field"
	},{
		"name": "banner_text",
		"value": "Plataforma virtual que amplia o acesso a novos clientes. Atendimento personalizado, flexível e diferenciado. Melhor aproveitamento do tempo que o seu cliente tem livre.",
		"label": "Texto do banner",
		"field_type": "text_area"
	},{
		"name": "banner_button_url",
		"value": "/account/users/sign_up",
		"label": "Url do botão",
		"field_type": "text_field"
	},{
		"name": "banner_button_text",
		"value": "Cadastre-se",
		"label": "Texto do botão",
		"field_type": "text_field"
	},{
		"name": "slider",
		"value": 1,
		"label": "Banners",
		"field_type": "repeater",
		"contents": [{
			"name": "image",
			"value": "corretor-banner-destaques.jpg",
			"label": "Imagem",
			"field_type": "dropbox_image",
			"order": 1
		},{
			"name": "title",
			"value": "Nome do empreendimento destaque",
			"label": "Título",
			"field_type": "text_field",
			"order": 2
		}]
	},{
		"name": "slider",
		"value": 2,
		"label": "Banners",
		"field_type": "repeater",
		"contents": [{
			"name": "image",
			"value": "parceiro-banner-destaques.jpg",
			"label": "Imagem",
			"field_type": "dropbox_image",
			"order": 1
		},{
			"name": "title",
			"value": "Fazemos<br/>por você",
			"label": "Título",
			"field_type": "text_field",
			"order": 2
		}]
	},{
		"name": "iconed_content",
		"value": 1,
		"label": "Diferencial",
		"field_type": "repeater",
		"contents": [{
			"name": "title",
			"value": "Atendimento diferenciado",
			"label": "Título",
			"field_type": "text_field",
			"order": 1
		},{
			"name": "text",
			"value": "Horários de atendimento diferenciados são grandes propulsores de novos negócios. Ferramentas acessíveis proporcionam respostas mais rápidas e eficientes.",
			"label": "Texto",
			"field_type": "text_area",
			"order": 2
		},{
			"name": "icon",
			"value": "comments-o",
			"label": "Ícone",
			"field_type": "text_field",
			"order": 3
		}]
	},{
		"name": "iconed_content",
		"value": 2,
		"label": "Diferencial",
		"field_type": "repeater",
		"contents": [{
			"name": "title",
			"value": "Aumento do portfólio",
			"label": "Título",
			"field_type": "text_field",
			"order": 1
		},{
			"name": "text",
			"value": "Negócios virtuais são vitrines para o mundo. O digital proporciona maior visualização e isso aumenta o número de pessoas interessadas no seu negócio. Sempre tem alguém procurando o imóvel que você está negociando.",
			"label": "Texto",
			"field_type": "text_area",
			"order": 2
		},{
			"name": "icon",
			"value": "folder-o",
			"label": "Ícone",
			"field_type": "text_field",
			"order": 3
		}]
	},{
		"name": "iconed_content",
		"value": 3,
		"label": "Diferencial",
		"field_type": "repeater",
		"contents": [{
			"name": "title",
			"value": "Gerenciamento facilitado",
			"label": "Título",
			"field_type": "text_field",
			"order": 1
		},{
			"name": "text",
			"value": "De forma prática, ágil e segura. Facilidade que torna o aumento de clientes apenas uma consequência das boas ações.",
			"label": "Texto",
			"field_type": "text_area",
			"order": 2
		},{
			"name": "icon",
			"value": "list-alt",
			"label": "Ícone",
			"field_type": "text_field",
			"order": 3
		}]
	},{
		"name": "iconed_content",
		"value": 4,
		"label": "Diferencial",
		"field_type": "repeater",
		"contents": [{
			"name": "title",
			"value": "Centralização das informações",
			"label": "Título",
			"field_type": "text_field",
			"order": 1
		},{
			"name": "text",
			"value": "Tudo em um único local. Sem muito esfoço: procurou, encontrou. Milhares de ofertas esperando por você.",
			"label": "Texto",
			"field_type": "text_area",
			"order": 2
		},{
			"name": "icon",
			"value": "laptop",
			"label": "Ícone",
			"field_type": "text_field",
			"order": 3
		}]
	},{
		"name": "faq_title",
		"value": "Dúvidas<br/>frequentes",
		"label": "Título FAQ",
		"field_type": "text_field"
	},{
		"name": "faq",
		"value": 1,
		"label": "FAQ",
		"field_type": "repeater",
		"contents": [{
			"name": "title",
			"value": "Quais as vantagens de tornar-se um corretor on-line?",
			"label": "Título",
			"field_type": "text_field",
			"order": 1
		},{
			"name": "text",
			"value": "Todas as negociações ficam integradas no site da Provizio. Assim aumentam as chances de venda e também apliam o número de contatos como possíveis clientes.",
			"label": "Texto",
			"field_type": "text_area",
			"order": 2
		}]
	},{
		"name": "faq",
		"value": 2,
		"label": "FAQ",
		"field_type": "repeater",
		"contents": [{
			"name": "title",
			"value": "Como fisgar clientes dentro do seu site?",
			"label": "Título",
			"field_type": "text_field",
			"order": 1
		},{
			"name": "text",
			"value": "Mais importante que ter o melhor negócio é saber como vender a imagem dele, afinal, a forma que você apresenta as informações fazem a diferença. Uma chamada divertida chama mais atenção do que um anúncio descrevendo as informações básicas do imóvel. Imagens também contribuem para chamar a atenção e valorizar a oferta.",
			"label": "Texto",
			"field_type": "text_area",
			"order": 2
		}]
	},{
		"name": "faq",
		"value": 3,
		"label": "FAQ",
		"field_type": "repeater",
		"contents": [{
			"name": "title",
			"value": "Porque a Provizio facilita a vida do corretor?",
			"label": "Título",
			"field_type": "text_field",
			"order": 1
		},{
			"name": "text",
			"value": "Por que todas as informações ficam integradas em um único local. Isso otimiza o tempo e o trabalho. São diversas ferramentas que aumentam a visibilidade dos imóveis, contribuindo para a efetivação do negócio.",
			"label": "Texto",
			"field_type": "text_area",
			"order": 2
		}]
	},{
		"name": "bottom_text",
		"value": "<strong>Mais venda</strong><br>menos dor de cabeça",
		"label": "Texto inferior",
		"field_type": "text_field"
	}]
}