Nome 	Cidade:	Estado:	Telefone:	Celular:	E-mail	CEP:	Endereço	Contato	Classificação de Performance
Opção Assistência Técnica - João Batista do Nascimento	Arapiraca	AL	(82) 99982-9210	(92) 99109-4031 / (92) 9915-2273	opcaojosete@hotmail.com	57309-750	Rua Dicionarista Aurelio Buarque de Holanda 410 Massaranduba 	João Batista ou Joseti	1579
ABS SOLUÇÕES TÉCNICAS REPRESENTAÇÕES	IJUI	RS	(55) 3332-1633	(55) 9974-7986	alexandrebassan@hotmail.com	98700-000	RUA MACEIÓ, 304 BURTET	ALEXANDRE BASSAN DA SILVEIRA	2027
AC BENEZOLI	Vitória	ES	(27) 3223-4679	(27) 99979-9918	benezoli.cia@bol.com.br	29051-050	PEDRO CARLOS DE SOUZA, 84 - SALA 103 Ilha de Santa Maria	ANTÔNIO CARLOS BENEZOLI	2180
Adelir Correa	Jaraguá do Sul	SC	(47) 3227-8074	(47) 9974-0384	adelir.correa@gmail.com	89251-702	Av. Marechal Deodoro da Fonseca, 1.188 andar 4 sala 401 Centro	Paulino	2056
Adritec Assistência Técnica e Comércio	São Paulo	SP	(11) 2373-4054 /34389277	(11) 94741-0443	adriano-adritec@uol.com.br	03264-000	Rua Francisco Fett, 543 - SL 03 Vila Paulo Silas	Adriano Ferreira	2625
Agile - Emerson de Paula Petrini	Santo Antonio da Platina	PR	(43) 3534-1779	(43)99841989	emersonkavo@gmail.com	86430-000	R. Juscelino K. de Oliveira, nº158 N.H. Pref. Joaq. Card. da Silveira	Emerson de Paula Petrini	1700
Antares	Rio de Janeiro	RJ	(21) 3274-8938	(21) 99623-6894	antares.kavo@gmail.com	20735-120	Rua Ana Barbosa, 36 Sala 404 Meier	Marcio Simões	2125
ART	Osasco	SP	(11) 3685-0329	 (11)46201318	andrea.ramalho@hotmail.com / andrea.ramalho@artequipo.com.br	06086-090	R Madre Rosselo, 246 Centro	Andrea Ramalho	1600
Assistec (KJ Mueller & Cia)	Lucas do Rio Verde	MT	(65) 3549-5175	(65) 9906-3090	assistec_kj@hotmail.com	78455-000	Rua Sarandi, 1297 Cidade Nova	Martim Muller	1550
Assistencia Dental Cremer	São Paulo	SP	(011) 3132-7101	0113206-0825	assistencia.tecnica@dentalcremer.com.br	01419-001	Alameda Santos 905 terceiro andar Cerqueira César	Daniel / Ana Paula	2102
Assistência Odontomédica Ltda	Joaçaba	SC	(49) 3522-5645	(49) 99828953	atendimento@assistenciaodontomedica.com.br	89600-000	Av. Santa Terezinha, 3.113 Menino Deus	Eliseu	2128
Assistência Técnica Oliveira LTDA	Nanuque	MG	(33)3621-1256	(33) 99974-4719	assistecoliveira@hotmail.com	39860-000	Caxambu, 754 Centro	Andevaldo Dias de Oliveira	1803
Assistodonto	Belém	PA	(91) 3228-0786	(91) 98147-9762	assistodonto@hotmail.com	66080-660	TR Mariz e Barros, 1320 Casa 02 Sala 01 Pedreira	Miguel/Eurico	1650
Asstec Odonto	São Paulo	SP	(11) 2639-1963	(11) 94708-5210	asto_odonto@hotmail.com	03711-001	AV Cangaiba, nº 2699, Sala 07 Cangaiba	Raphael ou Katia	2129
Asteco Assist.	Petropolis	RJ	(24) 2243-6751	(24) 99909-0808	astecoodontologia@ig.com.br	25620-150	Rua Marechal Deodoro, 195 sala 201 Centro	Aldo Santiago Schmidt	2200
AT Médica	Poços de Caldas	MG	(35) 3414-9971	(35) 98861-9625	info@atmedica.com.br	37701-037	Rua Espirito Santo, 78 Centro	Dinis Filipe Rombert Barroso	1900
ATAK - Nelson Rinkevicius	Esteio	RS	(51) 9237-6606	(51) 9171-8159	atak.br@hotmail.com	93280-000	Rua Vinte e Quatro de Agosto, 1.537 Liberdade	Cleyton	1908
Atak Com. e Man. em Aparelhos Odont. Ltda - me	Uberlândia	MG	(34) 3219-6244	(34)99102-6022	atak.odonto@gmail.com	38400-450	Av. Vasconcelos Costa 2172 Loja 01 Osvaldo Rezende	Daniel Alves da Silva	2706
Atak Com. e Man. em Aparelhos Odont. Ltda - me	Feira de Santana	BA	(75)3488-7403	(75) 98188-4949	atak.odonto@gmail.com	44.003-284	Rua Américo Vespúcio, 30 Serraria Brasil	Daniel Alves / Daniel Moreira	2706
Atak Com. e Man. em Aparelhos Odont. Ltda - me	Itumbiara	GO	(34) 3219-6246	(64)99211-0621	atak.odonto@gmail.com	38400-452	Av. Vasconcelos Costa 2172 Osvaldo Rezende	Daniel Alves / Rodrigo de Oliveira	2706
Atecnomed	Cacoal	RO	(69) 3443-2112	(69) 8416-4269	atecnomedadm@gmail.com	76963-898	Rua Princesa Isabel, 1940 Liberdade	Alex Mota Ramos	1604
ATO	Viçosa	MG	(32) 3555-1206	(31) 99912-9679	atoltda@yahoo.com.br	36570-000	Rua Benjamin Araújo, 56 - Sala 901 Centro	José Ernesto Lopes Ladeira	1679
ATO Odontológica	Santa Maria	RS	(55) 3304-1436	(55) 99399037	atoodontologica@hotmail.com	97110-800	Av Prefeito Evandro Behr, 3248 Camobi	Henrique Ávila	1878
BH TECNO DONTO (Jose Rodrigues)	Belo Horizonte	MG	(31) 3222-1114	(31) 99622-3618	tecnodonto.bh@hotmail.com	30180-101	Rua Guajajaras, 762 sala 103 e 105 Barro Preto	José Rodrigues	2801
Biotek	Goiânia	GO	(62) 3218-2300	(62) 8428-5650	biotekodonto@hotmail.com	74603-065	Av. Fued José Sebba, 389 Setor Leste Universitário	Cleison	2702
BlueAir - Odonto - Sumara Carmen	São Paulo	SP	(11) 5611-4242	(11) 97319-5169	blueair-odonto@uol.com.br	04437-150	Rua Gaspar Colaço Vilela, 42 Jd Consórcio	Alexandre de Anaya	2301
Briato	Campo Grande	MS	(67) 3026-1243	(67) 9906-4567	briato.lucy@gmail.com	79004-441	Rua Rui Barbosa, 1.901 Centro	Darlan e Lucy	2126
Carlos Alberto Santos da Silva	Maceio	AL	(82) 9132-9334	(82) 988054814	carlostec08@gmail.com	57018-700	Cj Vereador Bruno Ferrari, 91- Quadra E Chá de Bebedouro	Carlos Alberto	1100
CD Dental - Castelo Dental	São Paulo	SP	(11) 3246-1457	(11) 99998-5959	vendas3@cddental.com.br	04010-200	Rua Domingos de Morais, 1654 Vila Mariana	João José	1852
Centro Oeste Medical (COM Com e Assist Tecnica)	Campo Grande	MS	(67) 3042-8900	**	kavo@medicalms.com.br	79050-080	Rua Geraldo Agostinho Ramos, 696 Jardim Paulista	Leonardo Cardozo/ Jucélia	1751
CG. Assis. Técnica - Carlos Geovani Acosta	Itaqui	RS	(55) 3433-9488	(55) 9603-6472	cg.itaqui@gmail.com	97650-000	 Cidade Alta	Carlos Geovani / Junior	1527
CIENTEC	Ananindeua	PA	(91) 3295-2913	(91) 985080565	cientec@ig.com.br	67133-005	 Coqueiro	Cleiton Xavier	2404
Consertus - Roberto dos Santos	Santa Maria	RS	(55) 3212-1864	(55) 8111-8896	consertus@hotmail.com	97015-010	Rua Dr Alberto Pasqualini 111 Loja 13 Centro	Roberto	2254
Cruz e Cairo	Rio de Janeiro	RJ	(21) 2416-2609	(21) 96414-2488	veronica.cruzecairo@yahoo.com.br	23055-001	Av. Cesário de Melo, 4.070 Campo Grande	Verônica ou Juliana	2252
CSO Odonto - ATS Odonto	Sinop	MT	66 3532-2578	(66) 99955-2498	ats.odonto@yahoo.com.br	78550-035	Rau das Orquideas, 1188 Setor Residencial Sul	Cleber Salazar	2019
CTBH - CENTRAL TECNICA	Belo Horizonte	MG	(31) 3371-3121	(31) 99242-0929	central@ctbh.com.br	30421-017	Rua Castro Alves, 184 Nova Suissa	Warley	2576
Dental Atlântico (Vix Service)	Vitória	ES	(27) 3324-1406	(27) 99948-6344	contato@sines.com.br	29056-905	Av. Nossa Senhora da Penha, 1495 - Ed.Corporate Center Loja 03 Santa Lucia	Katie ou Cardoso	2600
Dental Brasileira	Tupã	SP	(14) 3441-4982	(14)996910700	assistencia@dentalbrasileira.com.br	17605-243	Rua México, 148 Jardim América	Wladimir Alcides	2127
Dental Magno - Valéria Cristina	São José dos Campos	SP	(012)39224187	(12) 99138-4917	dental.magno@hotmail.com	12245-370	Rua Inconfidência, 71 Jardim São Dimas	José ou Magno	1902
Dental Medics - Daniel Forgiarini	Lajeado	RS	(51) 3714-5447	(51) 9353-2420	dentalmedics01@gmail.com	95900-000	Rua Lidovino Fanton, Nº 125 São Critóvão	Daniel Forgiarini	1707
Dental Stilo - Gallardo Com. De Equip.	São Paulo	SP	(11) 2093-3713	(11) 3477-0785	at@dentalstilo.com.br	03070-000	Rua Melo Peixoto, 567 Tatuapé	Thabyda	2100
Dental Técnica NH - Victor Marciano Hahn	Novo Hamburgo	RS	(51) 3582-7379	(51) 9988-1760	dentalnh@terra.com.br	93336-170	Rua Caçador, 322 Ideal	Victor Marciano Hahn	2352
Dental Ville - Ville Com. Riobranquense	Visconde do Rio Branco	MG	(32) 3551-1447	(32) 98875-2619	leocaetano35@gmail.com	36520-000	Rua Cel. Geraldo Rodrigues Aguiar, 173  Centro	Leonardo Caetano	2426
Dentaltech - Sandra Maria Araujo	Natal	RN	(84) 3211-0139	**	dentaltech@ig.com.br	59025-050	Rua Felipe Camarão, 468 Centro	José Agnaldo P. dos Santos	2250
Dentécnica	Teixeira de Freitas 	BA	(27) 3222-8855	(27)99989-5953	dentecnica@dentecnica.com.br	45985114	Rua Pedro de Medeiros Guerra, 125 Centro	Sérgio Zammlute Rocha	1302
Dentistec	Porto Alegre	RS	(51) 3022-7473	(51) 9214-0002	dentistec@hotmail.com / dentistec@gmail.com	90230-150	Rua Moura Azevedo, 444 São Geraldo	Alexandre Bastos	2153
Dentotec	Guarulhos	SP	(011)24216565	(11)967279160	dentotec@terra.com.br	07031-070	Rua Ana Soares Barcellos, 83 Ponte Grande	Fernando	2177
DEP de Oliveira	Araras	SP	(19) 3351-5817	(19) 99631-0152	davipaes@yahoo.com.br	13601-123	Av. Renata Crespi da Silva Prado, 106 Jardim Belvedere	Davi Eliel Paes de Oliveira	1677
Destack	Florianópolis	SC	(48) 4009-3186	(48) 9905-7513	gerlicordova@yahoo.com.br	88075-250	Rua José Candido da Silva, 150 Balneario do Estreito	Gerli Adriane Córdova	1775
Dontal - P.Martins Bandeira	Imperatriz	MA	(99) 3526-3088	(99) 99649-1266	pedrombandeira@ig.com.br	65900-500	Rua Pernambuco, 89 Juçara	Pedro Martins Bandeira	1026
E. Da Silva Lauback	Campo Mourão	PR	(44) 3523-8304	(44) 9983-1510	eliseu_s_lobak@hotmail.com	87308-580	Av. Comendador Norberto Marcondes, 3084 Jardim São Pedro	Eliseu	1500
Eletrônica Eletel	Pato Branco	PR	(46) 3224-5596	(46) 9972-7620	eletronicaeletel@brturbo.com.br	85501-040	Rua Tapejara, 357 Centro	Joleacir Teixeira	2400
Eletrônica Servtécnica	Santa Cruz do Sul	RS	(51) 3711-2787	(51) 9925-0606	contato@servtecnica.com.br	96840-000	Rua Paul Harris, 712 Centro	Delcio/ Jackson	2000
Equipasul - Darlã Lima Aguilar	Pelotas	RS	(53) 3227-4005	(53) 9149-4556	equipasul@hotmail.com	96020-480	Rua Marcilio Dias, 2656 sala 101 Centro	Darla Lima Aguilar	1603
Eraldo Alves da Silva	Araruama	RJ	(22) 2665-1171	(22) 99997-4375	eraldoasilva@hotmail.com	28970-000	Rua Conselheiro Macedo Soares, sala 205, 335 Centro	Eraldo Alves da Silva	2106
Evoluir Saúde - Dhainner Rocha Macedo	Uberlândia	MG	(34) 3231-2554	(34) 99232-2396	diretoria@evoluirsaude.com	38408-903	Av. João Naves de Ávila, 2121 Bloco 5L Santa Mônica	Dhainner	1706
Fábio Postigo de Oliveria	Ponta Porã	MS	(67) 9926-3215	(67)84186742	fabio.odontotecnica@hotmail.com	79902-118	Rua Belém, 641 Vila Aurea	Fábio Postigo de Oliveria	2018
FATEC	São Lourenço	MG	(35) 3415-2053	 (35) 98803-9878	fabiotecnicoodonto37@hotmail.com	37470-000	AV Comendador Costa, nº869 Centro	Fábio José Do Espirito Santo	2018
Flávio Correa Lima & Cia LTDA	Tubarão	SC	(48) 3626-1625	(48) 8826-9697	tecnodonto.flavio@gmail.com	88704-530	Exp. Pedro Coelho Revoredo	Flávio Correa Lima	2154
Flexodon	Alfenas	MG	(35) 3291-2107	(35) 98868-2107	flexodon@hotmail.com	37130-000	Rua Sete de Setembro, 435 Centro	Paulo César Abreu	2575
Odonto Tecnica Avaré - Fragozo & Gonçalves LTDA	Avaré	SP	(14) 3022-3940	(14) 98156 1816	bruno_fragozo@hotmail.com	18705-050	Av Prefeito Misael Eufrasio Leal, 279 Centro	Bruno Fragozo Gonçalves	1425
Funek Equipamentos	Caxias do Sul	RS	(54) 3215-1822	(54) 9983-6079	funek@funek.com.br	95099-190	Rua General Mallet, 209 Rio Branco	Renan Guilherme de Oliveira	2204
Gema Comércio e Manutenção EIRELI - ME	Cuiabá	MT	(65) 3028-1258	(65) 9971-3623	geonyferreira@hotmail.com	78048-440	Av. Padre Roquete Pinto, 15 Alvorada	Geony Ferreira	2354
GMV Comércio	Vilhena	RO	(69) 3321-5173	(69) 8423-8359	mecol@bol.com.br	76980-000	Av. Leopoldo Perez, 3593 Centro	Manoel	1825
GR Assistência Técnica	Pirassununga	SP	(19) 3561-7402	(19) 99729-9677	geraldo-romeu@hotmail.com	13631-010	Rua Siqueira Campos, 2153 Centro	Geraldo Antonio Romeu	1778
G-TEC Assistência Técnica	Uba	MG	(32) 3532-5666	32) 99934-5975	gtec.uba@gmail.com	36500-000	Rua Coronel Carlos Brandão, 99 sala 303 Centro	Geovany	1925
GTO	Contagem	MG	(31) 3393-5599	(31)99696-0851	gtodontologia@yahoo.com.br	32143-240	Rua Vinte e Três, 319 Casa B Milanez	Reginaldo	2054
Guitec - Equipamentos Odontológicos	Londrina	PR	(43) 3324-4853	(43) 9955-5720	guitec@sercomtel.com.br	86010-510	Rua Espírito Santo, 653 Centro	Cláudio ou Fabio	2079
Herplatec	Joinville	SC	(47)30281139	(47)99841261	herplatec@hotmail.com	89221-300	Rua Iririú, 88 Saguaçu	José Placido Petersen	1950
HI - TEC Odonto - Armando Dos Santos	Praia Grande	SP	(13) 3012-0109	(13) 974206336	hi-tecodonto@ig.com.br	11707-000	Av. Presidente Kennedy 13687 loja 08 Caicara	Armando dos S.Nascimento	2150
HM Assistência Técnica e Comércio de Produtos Odontológicos	São Bernardo do Campo	SP	(11) 4177-4700	(11) 9204-2407	hmassistenciatecnica@globo.com	09635-000	Av. São João Batista, 409 Rudge Ramos	Rogério ou Lina	2328
HMC Comércio e Serviços de Aparelhos Odontológicos	Marilia	SP	(14) 3263-7049	(14) 997771291	assistenciahmc@gmail.com	17506-280	Rua Bartolomeu De Gusmão, Nº 39 São Miguel	Douglas Carvalho / Rafael da Silva Mocheuti	2331
HMC Comércio e Serviços de Aparelhos Odontológicos	Botucatu	SP	(14) 3263-7050	(14) 99708-1451	assistenciahmc@gmail.com	18604-600	Rua José Torres Filho, Nº 240 Jardim Peabiru	Douglas Carvalho / Antonio Carlos	2331
HMC Comércio e Serviços de Aparelhos Odontológicos	Lençóis Paulista	SP	(14) 3263-7049	(14)996677888	assistenciahmc@gmail.com	18683-490	Rua Fernão Dias Paes Leme, 437 Jd. Ubirama	Douglas Carvalho	2331
HMC Comércio e Serviços de Aparelhos Odontológicos	Avaré	SP	(14) 3263-7049	(14) 997904276	assistenciahmc@gmail.com	18700-230	R. Rio Gde do Norte, Nº 1693 Centro	Douglas Carvalho / Erivelton Lene	2331
HMC Comércio e Serviços de Aparelhos Odontológicos	Jaú	SP	(14) 3263-7049	(14) 98181-2072	assistenciahmc@gmail.com	17203-300	Rua Carlos Augusto de Arruda Botelho, nº 127 Jardim Maria Luiza 1	Douglas Carvalho / Aroldo Carinhato	2331
HMC Comércio e Serviços de Aparelhos Odontológicos	Ourinhos	SP	(14) 3263-7049	14-98116-1437	assistenciahmc@gmail.com	19911-690	Rua Brasil, Nº 549 Vila Nova Sá	Douglas Carvalho / James Aparecido	2331
HMC Comércio e Serviços de Aparelhos Odontológicos	Lins	SP	(14) 3263-7049	(14) 99802-5464	assistenciahmc@gmail.com	16402-128	Rua Cônego Vicente Francisco de Jesus, Nº 102 Jardim Santa Clara	Douglas Carvalho / Aldo Lima	2331
Hospmed - V M Barros	São Luiz	MA	(98) 3222-8460	(98) 98114-8132	hospmedvmbarros@ig.com.br	65010-030	Rua Afonso Pena, 91 B Centro	Elias Pacheco	2152
HTEC- Hugo Vinas	Sobral	CE	(88)999616266	**	htechospitalar@gmail.com	62030-490	Rua Arlindo Vieira de Almeida Junco	Hugo	1577
Isotec Assistencia Tecnica em Equip. Med e Odonto LTDA	Campo Grande	MS	(67) 3387-0436	(67)99036642	isotec2014@hotmail.com	79005-300	Av. Salgado Filho, 2660 Jardim América	José Carlos Grião/ Sandra Alves	1750
JCM Assistência - Junio Cezar Mariano	São José do Rio Preto	SP	(17) 33051273	(17) 98126-4573	juniomariano@ig.com.br	15025-500	Fritz Jacobs, 627 Boa Vista	Junio César Mariano	2103
JD Chagas & Cia	Paranagua	PR	(41) 3427-4944	(41) 97914660	assistenciaodontek@hotmail.com	83.206-250	Rua Maneco Viana, 233 Alto São Sebastião	Jackson Daniel	1652
JL Chagas & Cia	União da Vitória	PR	(42) 3522-8453	(42) 9124-4271	jlchagas2@yahoo.com.br	84600-000	Rua Clotario Portugal, 882 Centro	Jefferson Luiz Chagas	2402
JL de Oliveira Neto	Volta Redonda	RJ	(24) 3346-8835	(24) 98818-7214	j.ladeira@uol.com.br	27281-590	Av. XV de Novembro, 77 Apto 101 Vila Mury	José Ladeira	2176
Jotécnica - João Pereira Barbosa	Teófilo Otoni	MG	(33) 3521-4240	(33) 98406-5112	jotecnica@ig.com.br	39800-013	Rua Epaminondas Otoni, 702 - Sala 406  Centro	João Pereira Barbosa	2353
Jued Dental	João Pessoa	PB	(83) 3241-5545	(83) 8826-9116	at@jued.com.br	58040-400	Av Synesio Guimarães, 806 Torre	Érico	1854
Junque Peças	Taubaté	SP	(12) 3624-2523	(12)91121022	junque@junque.com.br	12020-000	Rua XV de Novembro, 897 Centro	Roberto Carlos M. Junque	2130
Kabo Odontecnica (DC da Silva Antunes Me)	São Luiz	MA	(98) 3199-5313	(98) 99614-3822	kaboodontecnica@hotmail.com	65076-730	Av. Ana Jansen nº 931A São Francisco	Carlos Henrique	1075
Kadovi Serviços	Macaé	RJ	(22) 2772-1037	(22) 99818-5874	dorivalsf@gmail.com	27945-401	Rua Alcides Mourão 39 Aroeira	Dorival Santos Ferreira	2225
Kavo Passo Fundo - Edson Luiz Pelisser	Passo Fundo	RS	(54) 36221000	(054)36221002	pelisserendodontia@bol.com.br	99010-041	Rua Independencia, 640 Sala 06 Centro	Sergio	2278
Kavo Service	Campinas	SP	(19) 3212-3462	**	atendimentok-s@bol.com.br	13070-717	Luis Gama, Nº 1218 Vila Andrades Neves	Luiz Carlos Sabino Junior	1629
Kavotec - José Silviomar da Silva	Uberlândia	MG	(34) 3213-9731	(34) 999910201	kavotec@com4.com.br	38402-020	Rua Piauí, 201 Marta Helena	José Silviomar da Silva	2228
Kimenz Equipamentos	Barueri	SP	(11) 4195-4366	(11) 9135-5992	atendimento@kimenz.com.br	06463-010	Rua Vertentes, 31 Jardim Mutinga	Viviane ou Graça	2105
KJ Fernandes	Picos	PI	(89)34221983	(89)3422-1983	kjfernandes@hotmail.com	64600-000	Av José de Moura Monteiro Boa Sorte	Kleber	2020
Lilian Maria Veronezi Gonçalves - ME	Uberaba	MG	(34) 3312-4570	(34) 99968-2501	odontolog@netsite.com.br	38067-360	Rua Colatina, 12 Jardim Espírito Santo	Lázaro Onofre Gonçalves	2379
Lima Odonto Equipamentos - Alexandre Lima	São Carlos	SP	(16) 3201-5164	(16) 9714-1099	lima_odontoequip@yahoo.com.br	13575-020	Martin Luther King, 1206 Vila Boa Vista 1	Alexandre de Lima	2025
Luiz Telmo Santos Machado ME	Lages	SC	(049)32224771	(49)99558854	smtelmo@gmail.com	88504-020	Rua Presidente Roosevelt  Copacabana	Luiz Telmo	1776
M Scalco	Santos	SP	(13) 3062-5007	(13)33843385	odonto-tec@hotmail.com	11030-600	AV. Doutor Epitácio Pessoa n°396 Loja 32 Aparecida	Marcel Scalco Nery	1850
M&N Odontomedical - www.mnbiodonto.com.br	Aracaju	SE	(79) 3211-2828	(79) 99979-3113	mn-odontomedical@oi.com.br	49052-240	Av. Edezio Vieira de Melo, 1098 Suiça	Cicero R. A. Noronha	1525
M.C. de Oliveira / Odontec	Santa Fé do Sul	SP	(17) 3631-6594	(17) 9704-4036	astecosantafe@hotmail.com	15775-000	Avenida Mangará, 356 Sala 2 Jardim Mangará	Wilson Roberto	2050
MA Serviços Tec. Odontológicos (Marcio Aurelio Allebrand)	Carazinho	RS	(54) 9966-5542	(54)9912-9034	marcioalbd@live.com	99500-000	 Laranjal	Marcio Aurelio Allebrand	1501
MACTEC	Suzano	SP	(11) 4747-4860	(11)995815788	mac.tec@hotmail.com	08675-420	Rua Aurora, 59 Vila São Francisco	Marcilio Aparecido Claudio	1529
Manzano - SRS Manzano	Niterói	RJ	(21) 2613-0095	(21) 99967-7645	atecmanzano@yahoo.com.br	24210-455	Rua Justina Bulhoes 24 Inga	José Manzano	2526
Mazzitec	Rio de Janeiro	RJ	(21) 2164-5342	(21) 2224- 1850	mazzitec@gmail.com	20051-001	Rua Dos Andradas, 29 sala 601 Centro	Marcelo	2227
Medical Eletromedicina	Divinópolis	MG	(37) 3216-1333	(37) 98809-6199	medical.net@terra.com.br	35500-095	Rua D. Pedro I, 854 Jardim Nova América	Leonardo Alvarenga de Souza/ Rogério	1705
Medontec Manutenção	Campina Grande	PB	(83) 3321-8224	(83) 99971-4035	at@medontec.com.br	58400-180	Rua Floriano Peixoto, 780 Centro	Wellington Barbosa	1351
Mega Assistec - Marcos Paulo	Palmas	TO	(63) 3224-7436	(63) 8414-7636	megaassistectocantins@hotmail.com	77022-018	Qdra 604 Sul Avenida  Plano Diretor Sul	Marcos	1400
MG Dentaltécnica - Jorge Luis Dörr	Montenegro	RS	(51) 3632-9286	(51) 9957-2162	jorge.dorr@sinos.net	95780-000	Rua Alberto Gottselig Centenário	Jorge Luis Dörr	1903
Miranda & Silva Tecnicos Associados	Curitiba	PR	(41) 3034-2008	(41) 9169-6397	mirandaesilva2008@yahoo.com.br	80510-000	Rua Inacio Lustosa Nº 1088 Loja 1 São Francisco	Ernesto / Fabiano	2454
Moisés Campos Araújo - Ramo	Brasília	DF	(61) 3327-4589	(61) 8491-9687	ramoat@gmail.com	70702-909	Q SH/Norte Quadra 02 Bloco J Asa Norte	Moisés Campos Araújo	2300
Moldutek	Passo Fundo	RS	(54) 3315-3131	(54) 9981-4517	moldutek1@hotmail.com	99070-410	Rua Pinheiro Machado, 292 Santa Maria	João Batista Rodrigues	1653
Mult Med Comercial	Juazeiro do Norte	CE	(88)3512-5297	(88)9966-7955	multmedjua@gmail.com	63050-211	Rua São José, nº 980 Salesianos	Mandelssohn de Lustosa	1375
NBN Comércio	São Paulo	SP	(11) 2737-5960	(11) 5575-5960	nbncat@terra.com.br	04120-050	Rua Dr Tirso Martins, 100 - cjto 215 Vila Mariana	Nely e Israel	2450
Nordestina Com. e Rep. Ltda	Capanema	PA	(91) 3352-0681	(91) 98116-2816	nordestinahospitalar@yahoo.com.br	68700-070	Travessa Cesar Pinheiro s/n Centro	Alessandro Oliveira ou Neto Picanço	1877
Norte Minas Medical	Manaus	AM	(92) 3654-1709	(92) 99109-4031 / (92) 9915-2273	contato@norteminasmedical.com.br	69046-005	Av. Constantinopla 602A  Alvorada	Michel Tiago ou Carlos Emanuel	1976
Nova Equipo Comércio	Santo André	SP	(011) 2771-1552 e 2801-0126	(11) 99898-0088	valter.dr@gmail.com	09230-701	Av. Martim Francisco, 1.115 CJ 09 Vila Lucinda	Valter Santos	2001
Nova Madrid	São Paulo	SP	(11) 2281-6227	(11) 9687-4222	dentalmadrid@ig.com.br	02036-022	Rua Duarte de Azevedo, 644 Santana	Cláudio Machado	2501
O.W. TEC - Osvaldo Wagner	Jundiaí	SP	(11) 4523-0837	(11) 9966-5536	owtec1@hotmail.com	13201-016	Major Sucupira, 87 Centro	Osvaldo ou Lindalva	2276
Odontec	Sorocaba	SP	(15) 3012-4165	(15) 9101-8933	odontecsorocaba@gmail.com	18095-340	Av. Pereira da Silva, 1712 Jardim Santa Rosalia	Luiz Antônio Silva	2325
Odontec - Everton Fuzinatto ME	São Lourenço do Oeste	SC	(49) 9917-8773	(049)84038281	fuzzinatto@hotmail.com	89990-000	Rua Aldo Lemos, 1154 Santa Catarina	Everton	1578
Odontécnica Lavrense	Lavras	MG	(35) 3822-1892	(35) 999791667	odontecnicalavras@hotmail.com	37200-000	Rua Deputado Castejon Branco, 105 A Jardim Fabiana	Francisco	1201
Odonto Assistec  Delmo Fernando	Sete Lagoas	MG	(31) 3773-4923	(31) 98845-9659	odontoassistec@hotmail.com	35700-424	Xavantes, 632 Nossa Senhora do Carmo	Delmo Fernando Pontello	2703
Odonto BH	Belo Horizonte	MG	(31) 3222-4144	(31) 99953-3310	odonto-bh@hotmail.com	30190-000	Av. Augusto de Lima, 407 Sala 611/612 Centro	Joélcio Calixto Pinheiro	2800
Odonto Centro - Idamar B. Gervazoni	Regente Feijó	SP	(18) 3279-1539	(18) 9783-0711	juodontocentro@hotmail.com	19570-000	Av. Clemente Pereira, 250 Centro	Juliano Gervazoni	2253
Odonto Med Sul	Cachoeiro de Itapemirim	ES	(28) 3036-1250	(28) 99942-4003	odontomedsul@hotmail.com	29308-187	Rua Samuel Levy, nº 357, Sala 101 Aquidaban	Abilio Agostinho Tozani	2650
Odonto Moretti	Rio do Sul	SC	(47) 3522-6892	(47) 8875-9942	paulinomoretti@hotmail.com	89167-117	Rua Botânico Kulhmann, 740 Eugênio Schneider	Paulino Moretti	2701
Odonto Muriaé	Muriaé	MG	(32) 3728-3333	(32) 99953-3068	odontomuriae@hotmail.com	36880-000	Rua Judith Pompei 851 João XXIII	Evando Silva de Melo	2202
Odonto Shop - J & Silva ltda ME	Macapá	AP	(96) 3223-5558	(96) 98406-4664	jeffersonsilvamcp@hotmail.com	68901-335	Av. Prof. Cora de Carvalho, 2.118 E Santa Rita	Geisa	1303
Odonto Talita	Teixeira de Freitas	BA	(73)3291-1505	(73) 99937-9051	odontotalita@hotmail.com	45996-001	Av. Presidente Getulio Vargas, 3.040 Bela Vista	Paulo de Cassio	1606
Odontobel - Odonto Equipamentos	Belo Horizonte	MG	(31) 3201-8341	(31) 986854583	odontobelbh@gmail.com	30160-031	Rua Espirito Santo, 845 Loja 26 Centro	Ailton Ferreira dos Santos	2179
Odontoflex	Cricúma	SC	(48) 9162-7570	(48) 9162-7563	odontocril@hotmail.com	88800-000	Rua Catarina Dario Martinhago, 89 Mina do Mato	Paulo Henrique	1704
Odontohelp - Viviana Da Silva	Lajeado	RS	(51) 3011-2597	(51) 9836-6608	odontohelp2008@yahoo.com.br	95900-00	Rua Felix Khul 138 Americano	Ira Cavalli	2405
Odontoklasse	Recife	PE	(81) 3222-4217	(81) 99782-2882 /(81) 99989-0166	odontoklasse@uol.com.br	50050-540	A.v. Visconde de Suassuna, 186 - Andar 1 Sala 107 Santo Amaro	Adilson Luiz Cavalcanti Pinto	2527
Odontomac - WS Comércio	Teresina	PI	(86) 3226-1815	(86) 98814-8300	odontomacthe@gmail.com	64000-190	Rua David Caldas, 1200 C Centro	Emerson	1401
Odontonew - Nilson Lopes	Baurú	SP	(14) 3234-1904	(14) 9651-8984	odontonew@uol.com.br	17012-160	Rua Maria José 1038 Vila Altinópolis	Nilson Lopes Bauru	1875
Odontonewtec	Ponta Grossa	PR	(42) 3225-7716	(42) 9971-8667	edinilson@odontonewtec.com.br	84010-260	Rua Francisco Ribas, 970 Centro	Edinilson de Menezes	2452
Odontoprest - Renato Quintino Pereira	Uberaba	MG	(34) 3075-4012	(34) 99978-7108	odontoprest@gmail.com	38022-200	Av. Guilherme Ferreira 2421 Loja 11 São Benedito	Renato Quintino Pereira	1907
Odontoserv	Itabira	MG	(31) 3831-2793	(31) 999636632	odontoserv@valenet.com.br	35900-153	Rua João de Oliveira Pena, 341 Eldorado	Márcio da Silveira	2578
Odontotec	Aracaju	SE	(79) 3022-5780	(79) 99978-3332	odontotecaracaju@bol.com.br	49010-180	Rua Estância, 616 Centro	Jorge - Adriana Carvalho	1628
Odontotec - MR Assistência Técnica	Manhuaçu	MG	(33) 3331-5071	(33) 984301808	odontotecmanhuacu@gmail.com	36900-000	Rua Monsenhor Gonzalez, nº 50 Centro	Douglas Alves	1855
Odontotec - Nucci e Sabino	Campinas	SP	(019)32326563	(019)92457216	odonto.tec@terra.com.br	13023-290	Rua José Campos Novaes, 160 Guanabara	Anselmo Roque Sabino	2455
Odontotec - Paulo Ricardo Crucillo	Porto Alegre	RS	(51) 3342-2063	(51) 3342-2063	odontec2@gmail.com	90230-250	Rua Buarque de Macedo, 610 São Geraldo	Tamires Moraes	2425
Odontotec Manutenção e Comércio	Limeira	SP	(19) 3033-4688	(19) 98411-1446	giovanysouza@gmail.com	13481-312	Rua Palmira Gatti Busch, 100 Jardim Ipiranga	Giovany Souza e Silva	2081
Odontotech - Gustavo Leandro Freitas da Cunha	Contagem	MG	(31) 3352-0292	(31) 99207-6982	odontotech@hotmail.com.br	32340-140	Rua Espanha, 357 - Loja 04 Gloria	Gustavo Leandro Freitas da Cunha	2054
Odontotécnica	Fortaleza	CE	(85) 3272-0488	(85) 9983-3187	odontotecnica@terra.com.br	60125-101	Rua Tibúrcio Cavalcante, 2950 Dionísio Torres	Paulo Sérgio	2403
Odontotécnica	Montes Claros	MG	(38) 3222-5467	(38) 99986-8538	ODONTOTECNICAOTAVIO@GMAIL.COM	39400-076	Rua Tiradentes, 765 - Loja B Centro	Otávio Correia Mourão	2704
Odontotécnica	Bragança Paulista	SP	(11) 2473-7331	(11) 99900-7812	odon-tec@hotmail.com	12916-310	Av João Polidori, 426 Loja 02 Jardim São José	Luis Fernando Gabriel de Paula	1901
Odontotécnica Oeste - José Bastista	Presidente Prudente	SP	(018)39081931	(018)97723521	tecnicaoeste@uol.com.br	19050-680	Rua José Bongiovani, 380 Jardim Bongiovani	José Batista Cardoso	1905
Odontoville Ltda	Joinville	SC	(47) 3027-1442	(47) 99273334	odontoville@uol.com.br	89218-528	Rua Marques de Olinda, 1322 Santo Antonio	Gilmar Gonçalves	2104
OLS TEC - Comércio e Assistência Técnica	Porto Velho	RO	(69) 3222-9977	(69) 9252-7728	at@olstec.com.br / vendas@olstec.com.br	76801-110	Duque de Caxias, nº 1470, sala 4 Centro	Luis	1880
Oral Técnica - Emerson Aristoteles	Marabá	PA	(94) 3324-3183	(94) 99134-4346	af15@msn.com	68503-000	Rua Miguel David, 1425 Novo Horizonte	Emerson Aristoteles	1607
Oraltec Com. Serv. Equip. Odontol. Ltda	Maringá	PR	(44) 3031-5060	(44) 9103-5054	assistencia@oraltec.com.br	87013-010	Rua Silva Jardim, 48 lj 02 Bairro Zona 1	Cesar Lopes	2720
Orion Dental- Campos Dental	Campos dos Goytacazes	RJ	(22)2728-2139	(22) 99946-5799	camposdental1@hotmail.com	28051-280	Rua Pref. Edgar Machado, 163 Parque Leopoldina	André Luiz de Assis	2707
Pontual Assistec	Palmas	TO	(63) 3217-5176	(63) 9934-3507	pontualassistec@gmail.com	77023-392	Qdr. 906 Sul  Lt. 13 Sala 02 Plano Diretor Sul	Acácio Moura	1879
PoweRtech	Taquara	RJ	(21) 2423-5944	(21) 99784-8040	powertech.odontomed@gmail.com	22730-190	Rua Apiacás, 502 sala 301 Rio de Janeiro	Hortêncio	2326
R. Savio & Savio Assist Técnica	Boa Vista	RR	(95) 9905-7220	95 991172679	regessavio@gmail.com	69301-110	Av. Major williams 1663 Sala A Centro	Reges Savio de Almeida	1575
R.C. Equipamentos (R.C Hospitalar)	Aragarças	GO	(64) 3638-3378	(66) 9991-5663	rchospitalar@hotmail.com / assistenciatecnica@rchospitalar.com.br	76240-000	Rua Maria Providencia Barbosa, 307 Qd 01 Lote 06 Sala 01 Setor Vila Ceará	Kleverton	1426
RCS Com.Serviços Odontológicos	Florianópolis	SC	(048)32446422	(48)99835195	comercial@rcsat.com.br	88075-530	Rua Prefeito Tolentino de Carvalho, 187 Balneario	Ramon Carlos da Silva Junior	2277
Reinke - Assistência	Itajubá	MG	(35) 3622-4392	(35) 99986-1886	gunter@reinkeat.com.br	37500-208	Rua José Verano da Silva, 101 Cruzeiro	Günter Frederico Reinke	1608
RITEC	Linhares	ES	(27) 3371-1644	(27) 99974-8251	empresa.ritec@hotmail.com	29905-690	Av. Das Gaivotas Residencial Gaivotas	César ou Roslainy	2525
RM Odonto Assistência Tec. - Carlos Alberto R de Lima	Ribeirão Preto	SP	(16) 3011-1426	(16) 8123-3420	rm@rmodonto.com.br	14020-055	Rua Prudente de Morais, 1808 - Sala 01 e 02 Centro	Carlos Alberto Lima	1800
Rodontologia Equipamentos Odontológicos Ltda ME	Chapecó	SC	(49)33287055	(49)91022246	rodrigoramal@yahoo.com.br	89809-560	Rua Modelo 208 D Efapi	Rodrigo	1625
Rodrigues & Freitas Ltda-ME	Foz do Iguaçu	PR	(45) 3572-7209	(45)9941-6366	odontotecfoz@hotmail.com	85851-090	Rua Antonio Raposo, 225 Centro	Marcelo Pinheiro de Freitas	2327
Rosseti	Ribeirão Preto	SP	(016)36334300	(16)91929442	irosseti@bol.com.br	14055-390	Rua Natal, 235 Vila Maria Luiza	Ismael Rosseti	2700
RP Odontopatos	Patos de Minas	MG	(34) 3821-9457	(34) 99182-5204	odontopatos@hotmail.com	38701-118	Av. Padre Almir Neves de Medeiros, 1050 Sobradinho	Roberto Rodrigues	2053
RS Assistencia - Rafael Marcondes	Campinas	SP	(19) 3231-6533	(19)979144242	rsassistenciatecnica@yahoo.com.br	13041-445	Avenida Abolição, 1836 Ponte Preta	Hamilton ou Rafael	2377
S C Comercio e Assistência Técnica	Aparecida de Goiania	GO	(62) 3277-6900	(62) 8204-0707	scassistenciakavo@gmail.com	74920-775	AV Euclides da Cunha Quadra 22 Lote 23 Sala 02 Jardim Bela Morada	Sandro Sales	1906
SEDI	São Paulo	SP	(11) 3141-2778	**	sediautorizadakavo@globo.com	01322-020	Rua Santa Madalena, nº 364 Bela Vista	Sérgio de Jesus Silva	2475
Serto - Cesario Ferreira dos Santos	Teresina	PI	(86) 3223-3365	(86) 99982-8449	cesario.santos@hotmail.com	64056-640	Rua Capitão Vanderley, Nº 2203 Piçarreira I	Cesário F. dos Santos Neto	2500
Serv Medical - Airton José Frainer	Santo Ângelo	RS	(55) 3312-3709	(51) 3109-8391	ajfrainer@brturbo.com.br	98801-520	Rua Monte Castelo, 140 Centro	Airton José Frainer	1802
Setemol - Manoel Edivaldo de Lima	Pau dos Ferros	RN	(84) 3351-2636	(84) 999712428	setemol@outlook.com	59900-000	Treze de Maio 324 Centro	Manoel	2078
SOS Consultório	Barreiras	BA	(77)3613-3475	(77) 99996-4743	ignaciosolanich237@hotmail.com	47810-769	Rua Beija Flor, 115 Boa Vista	Ignacio Oliveira	2080
SOS Odonto	Governador Valadares	MG	(33) 3271-4636	(33)98834-7126	sosodonto@ig.com.br	35020-220	Israel Pinheiro, 764 São Pedro	Santos Luiz de Almeida	1605
SP Tech	São Paulo	SP	(11) 5572-4338	(11) 98166-2844	sptech.kavo@gmail.com	04016-060	Rua Sargento José Spessoto, 197 Vila Mariana	Mauricio Gonçalves Moura	2378
Steo	Rio de Janeiro	RJ	(21)2522-9492	(21) 99855-3128	steokavo2014@hotmail.com	22071-000	Rua Miguel Lemos, 44 sala 202 Copacabana	Ricardo José	2175
Sultec	Curitiba	PR	(41) 3203-9965	(41) 9694-9490	sultec@terra.com.br	80710-620	Rua Desembargador Otavio do Amaral, 1268 Merces	Schultz	1576
Taguatec - RF dos Santos	Brasília	DF	(61)3562-1995	(61) 8571-4395	taguatec@gmail.com	71966-360	Q QS 06 Conjunto 240 A Lote 15 Taguatinga	Regis Fogaça dos Santos	1975
Tec Lagos	São Gonçalo	RJ	(21)2603-0776	(21) 97010-7337	ateclagos@yahoo.com.br	24440-400	Rua Moreira Cesar, 97- Sala 224 e 305 Centro	Flávio Assistência	2275
Tec Odonto Silva - Manoel Jesuíno	Araçatuba	SP	(18) 3623-4587	(18) 9781-5827	tecodontosilva@ibest.com.br	16015-030	Rua Conselheiro Oscar Rodrigues Alves, 965 Vila Mendonça	Manoel Jesuíno da Silva	2178
Tecdent	Salvador	BA	(71)3341-1437	(71) 99105-5648	tecdent09@yahoo.com.br	41760-040	Rua Adelaide Fernandes da Costa, 168 loja 05 Costa Azul	Rogério	2330
TECGYN Com. e Rep./ Doctor Shop Premium	Goiânia	GO	(62) 3218-2322	(62) 9242 9407	bruno@doctorshop.com.br	74083-020	Rua 83, nº 420, Quadra F18, Lt 48 Setor Sul	Angela Duarte/Brno Louzada	1200
Technew - Eduardo Eberhardt ME	Porto Alegre	RS	(51) 31098391	(51) 991130525 / 998664980	technewassistencia@hotmail.com	91020-010	Rua Dona Sebastiana, 435 São João	Eduardo Eberhardt	2329
Tecnarq	Natal	RN	(84) 3221-1392	(84) 9217-4222	comercial@tecnarq.com.br	59015-050	Rua Coronel Costa Pineheiro, 1.517 Tirol	Renata	1475
Tecno Alves	Barra Velha	SC	(047)99738810	(047)96571350	tecnoalves@hotmail.com	88390-000	Rua Afonso Radun, 340 Centro	Vinicius ou Eduardo	2075
Tecno UP - Simone Candido	Ituverava	SP	(16) 3839-0790	(16) 9999-0280	tecno_up@hotmail.com	14500-000	Rua Maximino de Melo, 225 Jardim Modelo	Simone	1300
Tecnodont	Recife	PE	(81) 3221-1392	(81) 3077-8343	ata.kavo@tecnodont.com.br	50100-030	Rua Gouveia de Barros, 214 Santo Amaro	Rui Rodrigues Chaves	1702
Tecnodonto	Piracicaba	SP	(19)34334500	(019)97545263	tecnodonto.ltda@uol.com.br	13418-560	Rua Regente Feijó, 2510 Vila Monteiro	Carlos Donizete Pupin	1804
TECNODONTO	Medianeira	PR	(45) 3264-6064	(45) 9133-5780	tecnodonto@medianeira.com.br	85884-000	RUA ALAGOAS, 1770 - SALA 01 Centro	MARCIO GARCIA BRUNHARA	1826
Tecnodonto Comercio	Jequiê	BA	(73) 3526-5377	(73) 99112-6122	tecnodonto2009@yahoo.com.br	45206-510	Rua D Urbis III, 5 A Jequiezinho	Jossimar Norberto	1376
Tecnodonto JN	São Paulo	SP	(11) 5587-3637	(11) 99602-4820	tecnodontojn@terra.com.br	04142-082	Av. Bosque da Saúde, 1608 Saúde	Cleide e Ney	2203
Tecshop	João Pessoa	PB	(83) 3244-5505	(83) 9983-1058	osdental@hotmail.com	58040-040	Av. Julia Freire1371 - Ed. Atlantis Center - Loja 104 Expedicionários	Silvio Romero	2055
Top Equipamentos	Conselheiro Lafaiete	MG	(31)3763-7388	(31)988991533	topequipo@veloxmail.com.br	36400-000	Rua Jorge Zacarias Mafuz, 42 Centro	Luiz Antonio de Castro Ferraz	2350
TT Tech	Sorocaba	SP	(15) 3011-9670	(15) 9121-0676	tttech@tttech.com.br	18053-190	Rua Raimundo R dos Santos Filho, 320 Cj Habitacional Julio de Mesquita Filho	Tiago Wilson de Almeida Cruz	1675
Universal TEC	Duque de Caxias	RJ	(21)2653-4256	(21) 99124-0825	franciscosantana70@live.com	25050-080	Rua Nunes Alves, 13- Sala 239 Centro	Francisco Santana	2375
VSY Serviços Eletromédicos	Rondonopolis	MT	(66) 3302-3331	(66) 3022-2512	yamalter@hotmail.com	78715-239	Rua: Pernambuco, Nº 220, Quadra 5 Lote 8 Jardim Santa Luzia	Valter	2028
W I	Curitiba	PR	(41) 3262-0833	(41) 9979-0436	wiasstec@hotmail.com	80045-130	Rua Dias da Rocha Filho, 371 Alto da XV	Valdemir Domingos ou Rafael Camargo	2453
W.E.A. Assist	São Paulo	SP	(011)38131630	(011) 75497197	weaterra@terra.com.br	05425-010	Rua Amaro Cavalheiro, 118 Pinheiros	Admilson Galan	2705
Wink - Vulmar Antonio Wink	Bom Progresso	RS	(55) 9997-0688	(55) 8126-6084	vulmarantoniowink@bol.com.br	98500-000	Rua Nove, 281 Centro	Vulmar	2077
WM Tec Assistência Técnica	Juiz de Fora	MG	(32) 3217-8478	(32)99976-9750	tecodontoodontologia@yahoo.com.br	36010-002	Rua Halfed 613 Loja 232 Centro	Marcos Tulio	2279
WR Comércio	Brasília	DF	(61) 3327-3748	(61) 9339-0841	wrbsb@globo.com	70763-530	SHCLN Q. 113 Bloco C Loja 21 Setor Asa Norte	José Roberto Fernandes	1602
									
									
									
									
